bsim_waves.vcd
$date
	Thu Feb 19 16:37:09 2015
$end
$version
	Bluespec VCD dumper 2.1
$end
$timescale
	1 us
$end
$scope module main $end
$scope module top $end
$var reg 1 ! CLK $end
$var reg 1 ! CLK $end
$var reg 1 " CAN_FIRE_RL_action_f_init_l66c21 $end
$var reg 1 # CAN_FIRE_RL_action_f_init_l69c21 $end
$var reg 1 $ CAN_FIRE_RL_action_f_init_l80c21 $end
$var reg 1 % CAN_FIRE_RL_action_f_init_l83c21 $end
$var reg 1 & CAN_FIRE_RL_action_f_update_l66c21 $end
$var reg 1 ' CAN_FIRE_RL_action_f_update_l69c21 $end
$var reg 1 ( CAN_FIRE_RL_action_f_update_l80c21 $end
$var reg 1 ) CAN_FIRE_RL_action_f_update_l83c21 $end
$var reg 1 * CAN_FIRE_RL_action_l38c32 $end
$var reg 1 + CAN_FIRE_RL_action_l41c18 $end
$var reg 1 , CAN_FIRE_RL_action_l44c18 $end
$var reg 1 - CAN_FIRE_RL_action_l52c18 $end
$var reg 1 . CAN_FIRE_RL_action_l60c18 $end
$var reg 1 / CAN_FIRE_RL_action_l63c32 $end
$var reg 1 0 CAN_FIRE_RL_action_l64c18 $end
$var reg 1 1 CAN_FIRE_RL_action_l67c38 $end
$var reg 1 2 CAN_FIRE_RL_action_l69c91 $end
$var reg 1 3 CAN_FIRE_RL_action_l74c18 $end
$var reg 1 4 CAN_FIRE_RL_action_l77c32 $end
$var reg 1 5 CAN_FIRE_RL_action_l78c18 $end
$var reg 1 6 CAN_FIRE_RL_action_l81c38 $end
$var reg 1 7 CAN_FIRE_RL_action_l83c94 $end
$var reg 1 8 CAN_FIRE_RL_action_l88c18 $end
$var reg 1 9 CAN_FIRE_RL_actionpar_run_l65c18 $end
$var reg 1 : CAN_FIRE_RL_actionpar_run_l79c18 $end
$var reg 1 ; CAN_FIRE_RL_actionpar_start_l65c18 $end
$var reg 1 < CAN_FIRE_RL_actionpar_start_l79c18 $end
$var reg 1 = CAN_FIRE_RL_auto_finish $end
$var reg 1 > CAN_FIRE_RL_auto_start $end
$var reg 1 ? CAN_FIRE_RL_fsm_start $end
$var reg 1 @ CAN_FIRE_RL_idle_l37c15 $end
$var reg 1 A CAN_FIRE_RL_idle_l66c21 $end
$var reg 1 B CAN_FIRE_RL_idle_l66c21_1 $end
$var reg 1 C CAN_FIRE_RL_idle_l69c21 $end
$var reg 1 D CAN_FIRE_RL_idle_l69c21_1 $end
$var reg 1 E CAN_FIRE_RL_idle_l80c21 $end
$var reg 1 F CAN_FIRE_RL_idle_l80c21_1 $end
$var reg 1 G CAN_FIRE_RL_idle_l83c21 $end
$var reg 1 H CAN_FIRE_RL_idle_l83c21_1 $end
$var reg 1 I CAN_FIRE_RL_par_blocks_1_restart $end
$var reg 1 J CAN_FIRE_RL_par_blocks_1_restart_1 $end
$var reg 1 K CAN_FIRE_RL_par_blocks_1_start_reg__dreg_update $end
$var reg 1 L CAN_FIRE_RL_par_blocks_1_start_reg__dreg_update_1 $end
$var reg 1 M CAN_FIRE_RL_par_blocks_1_state_every $end
$var reg 1 N CAN_FIRE_RL_par_blocks_1_state_every_1 $end
$var reg 1 O CAN_FIRE_RL_par_blocks_1_state_fired__dreg_update $end
$var reg 1 P CAN_FIRE_RL_par_blocks_1_state_fired__dreg_update_1 $end
$var reg 1 Q CAN_FIRE_RL_par_blocks_1_state_handle_abort $end
$var reg 1 R CAN_FIRE_RL_par_blocks_1_state_handle_abort_1 $end
$var reg 1 S CAN_FIRE_RL_par_blocks_restart $end
$var reg 1 T CAN_FIRE_RL_par_blocks_restart_1 $end
$var reg 1 U CAN_FIRE_RL_par_blocks_start_reg__dreg_update $end
$var reg 1 V CAN_FIRE_RL_par_blocks_start_reg__dreg_update_1 $end
$var reg 1 W CAN_FIRE_RL_par_blocks_state_every $end
$var reg 1 X CAN_FIRE_RL_par_blocks_state_every_1 $end
$var reg 1 Y CAN_FIRE_RL_par_blocks_state_fired__dreg_update $end
$var reg 1 Z CAN_FIRE_RL_par_blocks_state_fired__dreg_update_1 $end
$var reg 1 [ CAN_FIRE_RL_par_blocks_state_handle_abort $end
$var reg 1 \ CAN_FIRE_RL_par_blocks_state_handle_abort_1 $end
$var reg 1 ] CAN_FIRE_RL_restart $end
$var reg 1 ^ CAN_FIRE_RL_start_reg__dreg_update $end
$var reg 1 _ CAN_FIRE_RL_state_every $end
$var reg 1 ` CAN_FIRE_RL_state_fired__dreg_update $end
$var reg 1 a CAN_FIRE_RL_state_handle_abort $end
$var reg 1 b CAN_FIRE___me_check_25 $end
$var reg 1 c CAN_FIRE___me_check_26 $end
$var reg 1 d CAN_FIRE___me_check_27 $end
$var reg 1 e CAN_FIRE___me_check_28 $end
$var reg 1 f CAN_FIRE___me_check_29 $end
$var reg 1 g CAN_FIRE___me_check_30 $end
$var reg 1 h CAN_FIRE___me_check_31 $end
$var reg 1 i CAN_FIRE___me_check_32 $end
$var reg 1 j CAN_FIRE___me_check_33 $end
$var reg 1 k CAN_FIRE___me_check_35 $end
$var reg 1 l CAN_FIRE___me_check_36 $end
$var reg 1 m CAN_FIRE___me_check_39 $end
$var reg 1 n CAN_FIRE___me_check_40 $end
$var reg 1 o CAN_FIRE___me_check_41 $end
$var reg 1 p CAN_FIRE___me_check_42 $end
$var reg 1 q CAN_FIRE___me_check_43 $end
$var reg 1 r CAN_FIRE___me_check_45 $end
$var reg 1 s CAN_FIRE___me_check_46 $end
$var reg 1 t RST_N $end
$var reg 1 u WILL_FIRE_RL_action_f_init_l66c21 $end
$var reg 1 v WILL_FIRE_RL_action_f_init_l69c21 $end
$var reg 1 w WILL_FIRE_RL_action_f_init_l80c21 $end
$var reg 1 x WILL_FIRE_RL_action_f_init_l83c21 $end
$var reg 1 y WILL_FIRE_RL_action_f_update_l66c21 $end
$var reg 1 z WILL_FIRE_RL_action_f_update_l69c21 $end
$var reg 1 { WILL_FIRE_RL_action_f_update_l80c21 $end
$var reg 1 | WILL_FIRE_RL_action_f_update_l83c21 $end
$var reg 1 } WILL_FIRE_RL_action_l38c32 $end
$var reg 1 ~ WILL_FIRE_RL_action_l41c18 $end
$var reg 1 "! WILL_FIRE_RL_action_l44c18 $end
$var reg 1 "" WILL_FIRE_RL_action_l52c18 $end
$var reg 1 "# WILL_FIRE_RL_action_l60c18 $end
$var reg 1 "$ WILL_FIRE_RL_action_l63c32 $end
$var reg 1 "% WILL_FIRE_RL_action_l64c18 $end
$var reg 1 "& WILL_FIRE_RL_action_l67c38 $end
$var reg 1 "' WILL_FIRE_RL_action_l69c91 $end
$var reg 1 "( WILL_FIRE_RL_action_l74c18 $end
$var reg 1 ") WILL_FIRE_RL_action_l77c32 $end
$var reg 1 "* WILL_FIRE_RL_action_l78c18 $end
$var reg 1 "+ WILL_FIRE_RL_action_l81c38 $end
$var reg 1 ", WILL_FIRE_RL_action_l83c94 $end
$var reg 1 "- WILL_FIRE_RL_action_l88c18 $end
$var reg 1 ". WILL_FIRE_RL_actionpar_run_l65c18 $end
$var reg 1 "/ WILL_FIRE_RL_actionpar_run_l79c18 $end
$var reg 1 "0 WILL_FIRE_RL_actionpar_start_l65c18 $end
$var reg 1 "1 WILL_FIRE_RL_actionpar_start_l79c18 $end
$var reg 1 "2 WILL_FIRE_RL_auto_finish $end
$var reg 1 "3 WILL_FIRE_RL_auto_start $end
$var reg 1 "4 WILL_FIRE_RL_fsm_start $end
$var reg 1 "5 WILL_FIRE_RL_idle_l37c15 $end
$var reg 1 "6 WILL_FIRE_RL_idle_l66c21 $end
$var reg 1 "7 WILL_FIRE_RL_idle_l66c21_1 $end
$var reg 1 "8 WILL_FIRE_RL_idle_l69c21 $end
$var reg 1 "9 WILL_FIRE_RL_idle_l69c21_1 $end
$var reg 1 ": WILL_FIRE_RL_idle_l80c21 $end
$var reg 1 "; WILL_FIRE_RL_idle_l80c21_1 $end
$var reg 1 "< WILL_FIRE_RL_idle_l83c21 $end
$var reg 1 "= WILL_FIRE_RL_idle_l83c21_1 $end
$var reg 1 "> WILL_FIRE_RL_par_blocks_1_restart $end
$var reg 1 "? WILL_FIRE_RL_par_blocks_1_restart_1 $end
$var reg 1 "@ WILL_FIRE_RL_par_blocks_1_start_reg__dreg_update $end
$var reg 1 "A WILL_FIRE_RL_par_blocks_1_start_reg__dreg_update_1 $end
$var reg 1 "B WILL_FIRE_RL_par_blocks_1_state_every $end
$var reg 1 "C WILL_FIRE_RL_par_blocks_1_state_every_1 $end
$var reg 1 "D WILL_FIRE_RL_par_blocks_1_state_fired__dreg_update $end
$var reg 1 "E WILL_FIRE_RL_par_blocks_1_state_fired__dreg_update_1 $end
$var reg 1 "F WILL_FIRE_RL_par_blocks_1_state_handle_abort $end
$var reg 1 "G WILL_FIRE_RL_par_blocks_1_state_handle_abort_1 $end
$var reg 1 "H WILL_FIRE_RL_par_blocks_restart $end
$var reg 1 "I WILL_FIRE_RL_par_blocks_restart_1 $end
$var reg 1 "J WILL_FIRE_RL_par_blocks_start_reg__dreg_update $end
$var reg 1 "K WILL_FIRE_RL_par_blocks_start_reg__dreg_update_1 $end
$var reg 1 "L WILL_FIRE_RL_par_blocks_state_every $end
$var reg 1 "M WILL_FIRE_RL_par_blocks_state_every_1 $end
$var reg 1 "N WILL_FIRE_RL_par_blocks_state_fired__dreg_update $end
$var reg 1 "O WILL_FIRE_RL_par_blocks_state_fired__dreg_update_1 $end
$var reg 1 "P WILL_FIRE_RL_par_blocks_state_handle_abort $end
$var reg 1 "Q WILL_FIRE_RL_par_blocks_state_handle_abort_1 $end
$var reg 1 "R WILL_FIRE_RL_restart $end
$var reg 1 "S WILL_FIRE_RL_start_reg__dreg_update $end
$var reg 1 "T WILL_FIRE_RL_state_every $end
$var reg 1 "U WILL_FIRE_RL_state_fired__dreg_update $end
$var reg 1 "V WILL_FIRE_RL_state_handle_abort $end
$var reg 1 "W WILL_FIRE___me_check_25 $end
$var reg 1 "X WILL_FIRE___me_check_26 $end
$var reg 1 "Y WILL_FIRE___me_check_27 $end
$var reg 1 "Z WILL_FIRE___me_check_28 $end
$var reg 1 "[ WILL_FIRE___me_check_29 $end
$var reg 1 "\ WILL_FIRE___me_check_30 $end
$var reg 1 "] WILL_FIRE___me_check_31 $end
$var reg 1 "^ WILL_FIRE___me_check_32 $end
$var reg 1 "_ WILL_FIRE___me_check_33 $end
$var reg 1 "` WILL_FIRE___me_check_35 $end
$var reg 1 "a WILL_FIRE___me_check_36 $end
$var reg 1 "b WILL_FIRE___me_check_39 $end
$var reg 1 "c WILL_FIRE___me_check_40 $end
$var reg 1 "d WILL_FIRE___me_check_41 $end
$var reg 1 "e WILL_FIRE___me_check_42 $end
$var reg 1 "f WILL_FIRE___me_check_43 $end
$var reg 1 "g WILL_FIRE___me_check_45 $end
$var reg 1 "h WILL_FIRE___me_check_46 $end
$var reg 32 "i b__h22114 $end
$var reg 32 "j rg_j1_05_PLUS_1___d230 $end
$var reg 32 "k rg_j2_74_PLUS_1___d198 $end
$var reg 8 "l v__h437664 $end
$var reg 32 "m x__h438542 $end
$var reg 1 #H abort $end
$var reg 1 #I par_blocks_1_abort $end
$var reg 1 #J par_blocks_1_abort_1 $end
$var reg 1 #K par_blocks_1_start_reg $end
$var reg 1 #L par_blocks_1_start_reg_1 $end
$var reg 1 #M par_blocks_1_start_reg_2 $end
$var reg 1 #N par_blocks_1_start_reg_3 $end
$var reg 1 #O par_blocks_1_start_wire $end
$var reg 1 #P par_blocks_1_start_wire_1 $end
$var reg 1 #Q par_blocks_1_state_can_overlap $end
$var reg 1 #R par_blocks_1_state_can_overlap_1 $end
$var reg 1 #S par_blocks_1_state_fired $end
$var reg 1 #T par_blocks_1_state_fired_1 $end
$var reg 1 #U par_blocks_1_state_fired_2 $end
$var reg 1 #V par_blocks_1_state_fired_3 $end
$var reg 3 #W par_blocks_1_state_mkFSMstate $end
$var reg 3 #X par_blocks_1_state_mkFSMstate_1 $end
$var reg 1 #Y par_blocks_1_state_overlap_pw $end
$var reg 1 #Z par_blocks_1_state_overlap_pw_1 $end
$var reg 1 #[ par_blocks_1_state_set_pw $end
$var reg 1 #\ par_blocks_1_state_set_pw_1 $end
$var reg 1 #] par_blocks_abort $end
$var reg 1 #^ par_blocks_abort_1 $end
$var reg 1 #_ par_blocks_start_reg $end
$var reg 1 #` par_blocks_start_reg_1 $end
$var reg 1 #a par_blocks_start_reg_2 $end
$var reg 1 #b par_blocks_start_reg_3 $end
$var reg 1 #c par_blocks_start_wire $end
$var reg 1 #d par_blocks_start_wire_1 $end
$var reg 1 #e par_blocks_state_can_overlap $end
$var reg 1 #f par_blocks_state_can_overlap_1 $end
$var reg 1 #g par_blocks_state_fired $end
$var reg 1 #h par_blocks_state_fired_1 $end
$var reg 1 #i par_blocks_state_fired_2 $end
$var reg 1 #j par_blocks_state_fired_3 $end
$var reg 3 #k par_blocks_state_mkFSMstate $end
$var reg 3 #l par_blocks_state_mkFSMstate_1 $end
$var reg 1 #m par_blocks_state_overlap_pw $end
$var reg 1 #n par_blocks_state_overlap_pw_1 $end
$var reg 1 #o par_blocks_state_set_pw $end
$var reg 1 #p par_blocks_state_set_pw_1 $end
$var reg 1 #q par_running $end
$var reg 1 #r par_running_1 $end
$var reg 32 #s rg_j1 $end
$var reg 32 #t rg_j2 $end
$var reg 1 #u running $end
$var reg 1 #v start_reg $end
$var reg 1 #w start_reg_1 $end
$var reg 1 #x start_reg_2 $end
$var reg 1 #y start_wire $end
$var reg 1 #z state_can_overlap $end
$var reg 1 #{ state_fired $end
$var reg 1 #| state_fired_1 $end
$var reg 5 #} state_mkFSMstate $end
$var reg 1 #~ state_overlap_pw $end
$var reg 1 $! state_set_pw $end
$scope module hw_ModelEnigma $end
$var reg 1 ! CLK $end
$var reg 1 $" CAN_FIRE_RL_rl_process_char $end
$var reg 1 $# CAN_FIRE_request_put $end
$var reg 1 $$ CAN_FIRE_reset $end
$var reg 1 $% CAN_FIRE_response_get $end
$var reg 234 $& IF_rg_m_BIT_208_66_THEN_rg_m_BITS_450_TO_442_6_ETC___d371 $end
$var reg 234 $' IF_rg_m_BIT_442_60_THEN_rg_m_BITS_684_TO_676_6_ETC___d365 $end
$var reg 702 $( IF_rg_m_BIT_442_60_THEN_rg_m_BITS_684_TO_676_6_ETC___d374 $end
$var reg 1 $) RST_N $end
$var reg 1 $* WILL_FIRE_RL_rl_process_char $end
$var reg 1 $+ WILL_FIRE_request_put $end
$var reg 1 $, WILL_FIRE_reset $end
$var reg 1 $- WILL_FIRE_response_get $end
$var reg 1118 $. rg_m_BITS_1117_TO_910_59_CONCAT_IF_rg_m_BIT_44_ETC___d376 $end
$var reg 208 $/ rg_m_BITS_1117_TO_910___d359 $end
$var reg 208 $0 rg_m_BITS_207_TO_0___d375 $end
$var reg 225 $1 rg_m_BITS_441_TO_217___d373 $end
$var reg 234 $2 rg_m_BITS_450_TO_442_67_CONCAT_rg_m_BITS_675_T_ETC___d369 $end
$var reg 234 $3 rg_m_BITS_675_TO_442___d370 $end
$var reg 225 $4 rg_m_BITS_675_TO_451___d368 $end
$var reg 234 $5 rg_m_BITS_684_TO_676_61_CONCAT_rg_m_BITS_909_T_ETC___d363 $end
$var reg 234 $6 rg_m_BITS_909_TO_676___d364 $end
$var reg 225 $7 rg_m_BITS_909_TO_685___d362 $end
$var reg 1118 $8 rg_m___d4 $end
$var reg 1 $9 EN_request_put $end
$var reg 1 $: EN_reset $end
$var reg 1 $; EN_response_get $end
$var reg 1 $< RDY_request_put $end
$var reg 1 $= RDY_reset $end
$var reg 1 $> RDY_response_get $end
$var reg 8 $? request_put $end
$var reg 8 $@ response_get $end
$scope module fifo_in $end
$var reg 1 ! CLK $end
$var reg 1 $G RST $end
$var reg 1 $H FULL_N $end
$var reg 1 $I EMPTY_N $end
$var reg 1 $J ENQ $end
$var reg 8 $K D_IN $end
$var reg 1 $L DEQ $end
$var reg 1 $M CLR $end
$var reg 8 $N D_OUT $end
$var reg 8 $N arr_0 $end
$var reg 8 $O arr_1 $end
$upscope $end
$scope module fifo_out $end
$var reg 1 ! CLK $end
$var reg 1 $P RST $end
$var reg 1 $Q FULL_N $end
$var reg 1 $R EMPTY_N $end
$var reg 1 $S ENQ $end
$var reg 8 $T D_IN $end
$var reg 1 $U DEQ $end
$var reg 1 $V CLR $end
$var reg 8 $W D_OUT $end
$var reg 8 $W arr_0 $end
$var reg 8 $X arr_1 $end
$upscope $end
$var reg 1118 $Y rg_m $end
$var reg 1 $Z rotor_clicks_0 $end
$var reg 1 $[ rotor_clicks_1 $end
$var reg 1 $\ rotor_clicks_2 $end
$upscope $end
$upscope $end
$upscope $end
$enddefinitions $end
1!
0"
0#
0$
0%
0&
0'
0(
0)
0*
0+
0,
0-
0.
0/
00
01
02
03
04
05
06
07
08
09
0:
0;
0<
0=
0>
0?
0@
0A
0B
0C
0D
0E
0F
0G
0H
0I
0J
1K
1L
1M
1N
1O
1P
0Q
0R
0S
0T
1U
1V
1W
1X
1Y
1Z
0[
0\
0]
1^
1_
1`
0a
1b
1c
1d
1e
1f
1g
1h
1i
1j
1k
1l
1m
1n
1o
1p
1q
1r
1s
0t
0u
0v
0w
0x
0y
0z
0{
0|
0}
0~
0"!
0""
0"#
0"$
0"%
0"&
0"'
0"(
0")
0"*
0"+
0",
0"-
0".
0"/
0"0
0"1
0"2
0"3
0"4
0"5
0"6
0"7
0"8
0"9
0":
0";
0"<
0"=
0">
0"?
1"@
1"A
1"B
1"C
1"D
1"E
0"F
0"G
0"H
0"I
1"J
1"K
1"L
1"M
1"N
1"O
0"P
0"Q
0"R
1"S
1"T
1"U
0"V
1"W
1"X
1"Y
1"Z
1"[
1"\
1"]
1"^
1"_
1"`
1"a
1"b
1"c
1"d
1"e
1"f
1"g
1"h
b10101010101010101010101010101010 "i
b1110101011000110010010000100000 "j
b1101110011001010111001001110010 "k
b1100001 "l
b10101010101010101010101010101010 "m
x#H
x#I
x#J
0#K
x#L
0#M
x#N
x#O
x#P
1#Q
1#R
0#S
x#T
0#U
x#V
b0 #W
b0 #X
0#Y
0#Z
0#[
0#\
x#]
x#^
0#_
x#`
0#a
x#b
x#c
x#d
1#e
1#f
0#g
x#h
0#i
x#j
b0 #k
b0 #l
0#m
0#n
0#o
0#p
x#q
x#r
b10101010101010101010101010101010 #s
b10101010101010101010101010101010 #t
0#u
0#v
0#w
x#x
x#y
1#z
0#{
x#|
b0 #}
0#~
0$!
0$"
1$#
1$$
0$%
b101010101010101010101010101010101010101010101010101010101010101010101010101010101010101010101010101010101010101010101010101010101010101010101010101010101010101010101010101010101010101010101010101010101010101010101010101010101010101010 $&
b101010101010101010101010101010101010101010101010101010101010101010101010101010101010101010101010101010101010101010101010101010101010101010101010101010101010101010101010101010101010101010101010101010101010101010101010101010101010101010 $'
b101010101010101010101010101010101010101010101010101010101010101010101010101010101010101010101010101010101010101010101010101010101010101010101010101010101010101010101010101010101010101010101010101010101010101010101010101010101010101010101010101010101010101010101010101010101010101010101010101010101010101010101010101010101010101010101010101010101010101010101010101010101010101010101010101010101010101010101010101010101010101010101010101010101010101010101010101010101010101010101010101010101010101010101010101010101010101010101010101010101010101010101010101010101010101010101010101010101010101010101010101010101010101010101010101010101010101010101010101010101010101010101010101010101010101010101010101010 $(
0$)
0$*
0$+
0$,
0$-
b10101010101010101010101010101010101010101010101010101010101010101010101010101010101010101010101010101010101010101010101010101010101010101010101010101010101010101010101010101010101010101010101010101010101010101010101010101010101010101010101010101010101010101010101010101010101010101010101010101010101010101010101010101010101010101010101010101010101010101010101010101010101010101010101010101010101010101010101010101010101010101010101010101010101010101010101010101010101010101010101010101010101010101010101010101010101010101010101010101010101010101010101010101010101010101010101010101010101010101010101010101010101010101010101010101010101010101010101010101010101010101010101010101010101010101010101010101010101010101010101010101010101010101010101010101010101010101010101010101010101010101010101010101010101010101010101010101010101010101010101010101010101010101010101010101010101010101010101010101010101010101010101010101010101010101010101010101010101010101010101010101010101010101010101010101010101010101010101010101010101010101010101010101010101010101010101010101010101010101010101010101010101010101010101010101010101010 $.
b1010101010101010101010101010101010101010101010101010101010101010101010101010101010101010101010101010101010101010101010101010101010101010101010101010101010101010101010101010101010101010101010101010101010101010 $/
b1010101010101010101010101010101010101010101010101010101010101010101010101010101010101010101010101010101010101010101010101010101010101010101010101010101010101010101010101010101010101010101010101010101010101010 $0
b10101010101010101010101010101010101010101010101010101010101010101010101010101010101010101010101010101010101010101010101010101010101010101010101010101010101010101010101010101010101010101010101010101010101010101010101010101010 $1
b101010101010101010101010101010101010101010101010101010101010101010101010101010101010101010101010101010101010101010101010101010101010101010101010101010101010101010101010101010101010101010101010101010101010101010101010101010101010101010 $2
b101010101010101010101010101010101010101010101010101010101010101010101010101010101010101010101010101010101010101010101010101010101010101010101010101010101010101010101010101010101010101010101010101010101010101010101010101010101010101010 $3
b10101010101010101010101010101010101010101010101010101010101010101010101010101010101010101010101010101010101010101010101010101010101010101010101010101010101010101010101010101010101010101010101010101010101010101010101010101010 $4
b101010101010101010101010101010101010101010101010101010101010101010101010101010101010101010101010101010101010101010101010101010101010101010101010101010101010101010101010101010101010101010101010101010101010101010101010101010101010101010 $5
b101010101010101010101010101010101010101010101010101010101010101010101010101010101010101010101010101010101010101010101010101010101010101010101010101010101010101010101010101010101010101010101010101010101010101010101010101010101010101010 $6
b10101010101010101010101010101010101010101010101010101010101010101010101010101010101010101010101010101010101010101010101010101010101010101010101010101010101010101010101010101010101010101010101010101010101010101010101010101010 $7
b10101010101010101010101010101010101010101010101010101010101010101010101010101010101010101010101010101010101010101010101010101010101010101010101010101010101010101010101010101010101010101010101010101010101010101010101010101010101010101010101010101010101010101010101010101010101010101010101010101010101010101010101010101010101010101010101010101010101010101010101010101010101010101010101010101010101010101010101010101010101010101010101010101010101010101010101010101010101010101010101010101010101010101010101010101010101010101010101010101010101010101010101010101010101010101010101010101010101010101010101010101010101010101010101010101010101010101010101010101010101010101010101010101010101010101010101010101010101010101010101010101010101010101010101010101010101010101010101010101010101010101010101010101010101010101010101010101010101010101010101010101010101010101010101010101010101010101010101010101010101010101010101010101010101010101010101010101010101010101010101010101010101010101010101010101010101010101010101010101010101010101010101010101010101010101010101010101010101010101010101010101010101010101010101010101010101010 $8
0$9
0$:
0$;
1$<
1$=
0$>
b0 $?
b0 $@
0$G
1$H
0$I
0$J
b10101010 $K
0$L
1$M
bx $N
bx $O
0$P
1$Q
0$R
0$S
b10101010 $T
0$U
1$V
bx $W
bx $X
b10101010101010101010101010101010101010101010101010101010101010101010101010101010101010101010101010101010101010101010101010101010101010101010101010101010101010101010101010101010101010101010101010101010101010101010101010101010101010101010101010101010101010101010101010101010101010101010101010101010101010101010101010101010101010101010101010101010101010101010101010101010101010101010101010101010101010101010101010101010101010101010101010101010101010101010101010101010101010101010101010101010101010101010101010101010101010101010101010101010101010101010101010101010101010101010101010101010101010101010101010101010101010101010101010101010101010101010101010101010101010101010101010101010101010101010101010101010101010101010101010101010101010101010101010101010101010101010101010101010101010101010101010101010101010101010101010101010101010101010101010101010101010101010101010101010101010101010101010101010101010101010101010101010101010101010101010101010101010101010101010101010101010101010101010101010101010101010101010101010101010101010101010101010101010101010101010101010101010101010101010101010101010101010101010101010101010 $Y
0$Z
0$[
0$\
1>
1"3
0$M
0$V
#5
0!
1t
1$)
1$G
1$P
#10
1*
0>
1?
1}
0"3
1"4
1#x
1#y
1#|
1$!
1!
1#u
1#v
#15
0!
#20
0*
1+
0?
0}
1~
0"4
x#x
x#y
1!
0#v
1#w
1#{
b1 #}
#25
0!
#30
0+
1,
0~
1"!
1!
0#w
b10 #}
#35
0!
#40
0,
1-
0"!
1""
1!
b11 #}
#45
0!
#50
0-
1.
0""
1"#
1!
b100 #}
#55
0!
#60
0.
1/
0"#
1"$
1$,
1$:
1!
b101 #}
#65
0!
#70
0/
10
0"$
1"%
0$,
0$:
1!
b110 #}
b1011010010101010101000101001101010101000101100101010110010100110101001001011000010100000100110001001110010101110100111101001011010010100100100101000001010000110100011001000101010001000100011101000010010010000101010000100010100101101000100100100101100100101001000100111000101011000100111100101010100101011100100101000100000100100110100100101110100011100100011000101100000101000100100001110100110000100001000100100000101001100101000000100010000101011100100010000100000100100001010100001100101100000100011100100100100100011000101001100100110100100101000101101000101001000101010100100100000101000000101000100101011000100111000100101100101010000100010100100110000100111100101100100101011100100000100100001100100100110100101000101001000100001000100011100100111000100101100101010000100110100101001100101100000100100000100010100100011000101100100101000000101010100100110000100010000100111110101101000101000100101011000100111001001010010100100100110101001011010011000100011101001000010110000100111101000100010100010101101001010111010101010101011001011001010000110101001101010100010000010100001001010000010010010100010101000110 $Y
#75
0!
#80
1"
1#
00
1;
1u
1v
0"%
1"0
1#L
1#O
1#T
1#[
1#`
1#c
1#h
1#o
1#q
1!
b111 #}
#85
0!
#90
0"
0#
11
19
0;
0u
0v
1"&
1".
0"0
b0 "i
b0 "m
x#L
x#O
x#T
0#[
x#`
x#c
1$+
1$9
b1000101 $?
1$J
b1000101 $K
1!
1#K
1#S
b1 #W
1#_
1#g
b1 #k
b0 #s
b0 #t
b1000 #}
#95
0!
#100
1&
01
1y
0"&
b1 "j
1$"
b10101110010001000010000010010000101010000110010110000010001110010010010010001100010100110010011010010010100010110100010100100010101010010010000010100000010100010010101100010011100010010110010101000010001010010011000010011110010110010 $&
b10101000010001010010110100010010010010110010010100100010011100010101100010011110010101010010101110010010100010000010010011010010010111010001110010001100010110000010100010010000111010011000010000100010010000010100110010100000010001000 $'
b10101000010001010010110100010010010010110010010100100010011100010101100010011110010101010010101110010010100010000010010011010010010111010001110010001100010110000010100010010000111010011000010000100010010000010100110010100000010001000010101110010001000010000010010000101010000110010110000010001110010010010010001100010100110010011010010010100010110100010100100010101010010010000010100000010100010010101100010011100010010110010101000010001010010011000010011110010110010010101100010101110010000010010000110010010011010010100010100100010000100010001110010011100010010110010101000010011010010100110010110000010010000010001010010001100010110010010100000010101010010011000010001000010011111010110100010100010 $(
1$*
0$+
b1011010010101010101000101001101010101000101100101010110010100110101001001011000010100000100110001001110010101110100111101001011010010100100100101000001010000110100011001000101010001000100011101000010010010000101010000100010100101101000100100100101100100101001000100111000101011000100111100101010100101011100100101000100000100100110100100101110100011100100011000101100000101000100100001110100110000100001000100100000101001100101000000100010000101011100100010000100000100100001010100001100101100000100011100100100100100011000101001100100110100100101000101101000101001000101010100100100000101000000101000100101011000100111000100101100101010000100010100100110000100111100101100100101011000101011100100000100100001100100100110100101000101001000100001000100011100100111000100101100101010000100110100101001100101100000100100000100010100100011000101100100101000000101010100100110000100010000100111110101101000101000100100111001001010010100100100110101001011010011000100011101001000010110000100111101000100010100010101101001010111010101010101011001011001010000110101001101010100010000010100001001010000010010010100010101000110 $.
b101101001010101010100010100110101010100010110010101011001010011010100100101100001010000010011000100111001010111010011110100101101001010010010010100000101000011010001100100010101000100010001110100001001001000 $/
b100111001001010010100100100110101001011010011000100011101001000010110000100111101000100010100010101101001010111010101010101011001011001010000110101001101010100010000010100001001010000010010010100010101000110 $0
b10101110010000010010000110010010011010010100010100100010000100010001110010011100010010110010101000010011010010100110010110000010010000010001010010001100010110010010100000010101010010011000010001000010011111010110100010100010 $1
b10110010010101110010001000010000010010000101010000110010110000010001110010010010010001100010100110010011010010010100010110100010100100010101010010010000010100000010100010010101100010011100010010110010101000010001010010011000010011110 $2
b10101110010001000010000010010000101010000110010110000010001110010010010010001100010100110010011010010010100010110100010100100010101010010010000010100000010100010010101100010011100010010110010101000010001010010011000010011110010110010 $3
b10101110010001000010000010010000101010000110010110000010001110010010010010001100010100110010011010010010100010110100010100100010101010010010000010100000010100010010101100010011100010010110010101000010001010010011000010011110 $4
b10001000010101000010001010010110100010010010010110010010100100010011100010101100010011110010101010010101110010010100010000010010011010010010111010001110010001100010110000010100010010000111010011000010000100010010000010100110010100000 $5
b10101000010001010010110100010010010010110010010100100010011100010101100010011110010101010010101110010010100010000010010011010010010111010001110010001100010110000010100010010000111010011000010000100010010000010100110010100000010001000 $6
b10101000010001010010110100010010010010110010010100100010011100010101100010011110010101010010101110010010100010000010010011010010010111010001110010001100010110000010100010010000111010011000010000100010010000010100110010100000 $7
b1011010010101010101000101001101010101000101100101010110010100110101001001011000010100000100110001001110010101110100111101001011010010100100100101000001010000110100011001000101010001000100011101000010010010000101010000100010100101101000100100100101100100101001000100111000101011000100111100101010100101011100100101000100000100100110100100101110100011100100011000101100000101000100100001110100110000100001000100100000101001100101000000100010000101011100100010000100000100100001010100001100101100000100011100100100100100011000101001100100110100100101000101101000101001000101010100100100000101000000101000100101011000100111000100101100101010000100010100100110000100111100101100100101011100100000100100001100100100110100101000101001000100001000100011100100111000100101100101010000100110100101001100101100000100100000100010100100011000101100100101000000101010100100110000100010000100111110101101000101000100101011000100111001001010010100100100110101001011010011000100011101001000010110000100111101000100010100010101101001010111010101010101011001011001010000110101001101010100010000010100001001010000010010010100010101000110 $8
0$9
0$J
1$L
1$S
b1010101 $T
1!
0#K
0#S
0#_
b10 #k
b1001 #}
1$I
b1000101 $N
#105
0!
