bsim_waves.vcd
$date
	Sat Jul 16 22:26:06 2016
$end
$version
	Bluespec VCD dumper 2.1
$end
$timescale
	1 us
$end
$scope module main $end
$scope module top $end
$var reg 1 ! CLK $end
$var reg 1 ! CLK $end
$var reg 1 " CAN_FIRE_RL_action_f_init_l78c21 $end
$var reg 1 # CAN_FIRE_RL_action_f_init_l81c21 $end
$var reg 1 $ CAN_FIRE_RL_action_f_init_l92c21 $end
$var reg 1 % CAN_FIRE_RL_action_f_init_l95c21 $end
$var reg 1 & CAN_FIRE_RL_action_f_update_l78c21 $end
$var reg 1 ' CAN_FIRE_RL_action_f_update_l81c21 $end
$var reg 1 ( CAN_FIRE_RL_action_f_update_l92c21 $end
$var reg 1 ) CAN_FIRE_RL_action_f_update_l95c21 $end
$var reg 1 * CAN_FIRE_RL_action_l100c18 $end
$var reg 1 + CAN_FIRE_RL_action_l38c18 $end
$var reg 1 , CAN_FIRE_RL_action_l39c32 $end
$var reg 1 - CAN_FIRE_RL_action_l40c18 $end
$var reg 1 . CAN_FIRE_RL_action_l43c18 $end
$var reg 1 / CAN_FIRE_RL_action_l46c18 $end
$var reg 1 0 CAN_FIRE_RL_action_l59c18 $end
$var reg 1 1 CAN_FIRE_RL_action_l72c18 $end
$var reg 1 2 CAN_FIRE_RL_action_l75c32 $end
$var reg 1 3 CAN_FIRE_RL_action_l76c18 $end
$var reg 1 4 CAN_FIRE_RL_action_l79c38 $end
$var reg 1 5 CAN_FIRE_RL_action_l81c91 $end
$var reg 1 6 CAN_FIRE_RL_action_l86c18 $end
$var reg 1 7 CAN_FIRE_RL_action_l89c32 $end
$var reg 1 8 CAN_FIRE_RL_action_l90c18 $end
$var reg 1 9 CAN_FIRE_RL_action_l93c38 $end
$var reg 1 : CAN_FIRE_RL_action_l95c94 $end
$var reg 1 ; CAN_FIRE_RL_actionpar_run_l77c18 $end
$var reg 1 < CAN_FIRE_RL_actionpar_run_l91c18 $end
$var reg 1 = CAN_FIRE_RL_actionpar_start_l77c18 $end
$var reg 1 > CAN_FIRE_RL_actionpar_start_l91c18 $end
$var reg 1 ? CAN_FIRE_RL_auto_finish $end
$var reg 1 @ CAN_FIRE_RL_auto_start $end
$var reg 1 A CAN_FIRE_RL_fsm_start $end
$var reg 1 B CAN_FIRE_RL_idle_l37c15 $end
$var reg 1 C CAN_FIRE_RL_idle_l78c21 $end
$var reg 1 D CAN_FIRE_RL_idle_l78c21_1 $end
$var reg 1 E CAN_FIRE_RL_idle_l81c21 $end
$var reg 1 F CAN_FIRE_RL_idle_l81c21_1 $end
$var reg 1 G CAN_FIRE_RL_idle_l92c21 $end
$var reg 1 H CAN_FIRE_RL_idle_l92c21_1 $end
$var reg 1 I CAN_FIRE_RL_idle_l95c21 $end
$var reg 1 J CAN_FIRE_RL_idle_l95c21_1 $end
$var reg 1 K CAN_FIRE_RL_par_blocks_1_restart $end
$var reg 1 L CAN_FIRE_RL_par_blocks_1_restart_1 $end
$var reg 1 M CAN_FIRE_RL_par_blocks_1_start_reg__dreg_update $end
$var reg 1 N CAN_FIRE_RL_par_blocks_1_start_reg__dreg_update_1 $end
$var reg 1 O CAN_FIRE_RL_par_blocks_1_state_every $end
$var reg 1 P CAN_FIRE_RL_par_blocks_1_state_every_1 $end
$var reg 1 Q CAN_FIRE_RL_par_blocks_1_state_fired__dreg_update $end
$var reg 1 R CAN_FIRE_RL_par_blocks_1_state_fired__dreg_update_1 $end
$var reg 1 S CAN_FIRE_RL_par_blocks_1_state_handle_abort $end
$var reg 1 T CAN_FIRE_RL_par_blocks_1_state_handle_abort_1 $end
$var reg 1 U CAN_FIRE_RL_par_blocks_restart $end
$var reg 1 V CAN_FIRE_RL_par_blocks_restart_1 $end
$var reg 1 W CAN_FIRE_RL_par_blocks_start_reg__dreg_update $end
$var reg 1 X CAN_FIRE_RL_par_blocks_start_reg__dreg_update_1 $end
$var reg 1 Y CAN_FIRE_RL_par_blocks_state_every $end
$var reg 1 Z CAN_FIRE_RL_par_blocks_state_every_1 $end
$var reg 1 [ CAN_FIRE_RL_par_blocks_state_fired__dreg_update $end
$var reg 1 \ CAN_FIRE_RL_par_blocks_state_fired__dreg_update_1 $end
$var reg 1 ] CAN_FIRE_RL_par_blocks_state_handle_abort $end
$var reg 1 ^ CAN_FIRE_RL_par_blocks_state_handle_abort_1 $end
$var reg 1 _ CAN_FIRE_RL_restart $end
$var reg 1 ` CAN_FIRE_RL_start_reg__dreg_update $end
$var reg 1 a CAN_FIRE_RL_state_every $end
$var reg 1 b CAN_FIRE_RL_state_fired__dreg_update $end
$var reg 1 c CAN_FIRE_RL_state_handle_abort $end
$var reg 1 d CAN_FIRE___me_check_25 $end
$var reg 1 e CAN_FIRE___me_check_26 $end
$var reg 1 f CAN_FIRE___me_check_27 $end
$var reg 1 g CAN_FIRE___me_check_28 $end
$var reg 1 h CAN_FIRE___me_check_29 $end
$var reg 1 i CAN_FIRE___me_check_30 $end
$var reg 1 j CAN_FIRE___me_check_31 $end
$var reg 1 k CAN_FIRE___me_check_32 $end
$var reg 1 l CAN_FIRE___me_check_33 $end
$var reg 1 m CAN_FIRE___me_check_34 $end
$var reg 1 n CAN_FIRE___me_check_35 $end
$var reg 1 o CAN_FIRE___me_check_37 $end
$var reg 1 p CAN_FIRE___me_check_38 $end
$var reg 1 q CAN_FIRE___me_check_41 $end
$var reg 1 r CAN_FIRE___me_check_42 $end
$var reg 1 s CAN_FIRE___me_check_43 $end
$var reg 1 t CAN_FIRE___me_check_44 $end
$var reg 1 u CAN_FIRE___me_check_45 $end
$var reg 1 v CAN_FIRE___me_check_47 $end
$var reg 1 w CAN_FIRE___me_check_48 $end
$var reg 1 x RST_N $end
$var reg 1 y WILL_FIRE_RL_action_f_init_l78c21 $end
$var reg 1 z WILL_FIRE_RL_action_f_init_l81c21 $end
$var reg 1 { WILL_FIRE_RL_action_f_init_l92c21 $end
$var reg 1 | WILL_FIRE_RL_action_f_init_l95c21 $end
$var reg 1 } WILL_FIRE_RL_action_f_update_l78c21 $end
$var reg 1 ~ WILL_FIRE_RL_action_f_update_l81c21 $end
$var reg 1 "! WILL_FIRE_RL_action_f_update_l92c21 $end
$var reg 1 "" WILL_FIRE_RL_action_f_update_l95c21 $end
$var reg 1 "# WILL_FIRE_RL_action_l100c18 $end
$var reg 1 "$ WILL_FIRE_RL_action_l38c18 $end
$var reg 1 "% WILL_FIRE_RL_action_l39c32 $end
$var reg 1 "& WILL_FIRE_RL_action_l40c18 $end
$var reg 1 "' WILL_FIRE_RL_action_l43c18 $end
$var reg 1 "( WILL_FIRE_RL_action_l46c18 $end
$var reg 1 ") WILL_FIRE_RL_action_l59c18 $end
$var reg 1 "* WILL_FIRE_RL_action_l72c18 $end
$var reg 1 "+ WILL_FIRE_RL_action_l75c32 $end
$var reg 1 ", WILL_FIRE_RL_action_l76c18 $end
$var reg 1 "- WILL_FIRE_RL_action_l79c38 $end
$var reg 1 ". WILL_FIRE_RL_action_l81c91 $end
$var reg 1 "/ WILL_FIRE_RL_action_l86c18 $end
$var reg 1 "0 WILL_FIRE_RL_action_l89c32 $end
$var reg 1 "1 WILL_FIRE_RL_action_l90c18 $end
$var reg 1 "2 WILL_FIRE_RL_action_l93c38 $end
$var reg 1 "3 WILL_FIRE_RL_action_l95c94 $end
$var reg 1 "4 WILL_FIRE_RL_actionpar_run_l77c18 $end
$var reg 1 "5 WILL_FIRE_RL_actionpar_run_l91c18 $end
$var reg 1 "6 WILL_FIRE_RL_actionpar_start_l77c18 $end
$var reg 1 "7 WILL_FIRE_RL_actionpar_start_l91c18 $end
$var reg 1 "8 WILL_FIRE_RL_auto_finish $end
$var reg 1 "9 WILL_FIRE_RL_auto_start $end
$var reg 1 ": WILL_FIRE_RL_fsm_start $end
$var reg 1 "; WILL_FIRE_RL_idle_l37c15 $end
$var reg 1 "< WILL_FIRE_RL_idle_l78c21 $end
$var reg 1 "= WILL_FIRE_RL_idle_l78c21_1 $end
$var reg 1 "> WILL_FIRE_RL_idle_l81c21 $end
$var reg 1 "? WILL_FIRE_RL_idle_l81c21_1 $end
$var reg 1 "@ WILL_FIRE_RL_idle_l92c21 $end
$var reg 1 "A WILL_FIRE_RL_idle_l92c21_1 $end
$var reg 1 "B WILL_FIRE_RL_idle_l95c21 $end
$var reg 1 "C WILL_FIRE_RL_idle_l95c21_1 $end
$var reg 1 "D WILL_FIRE_RL_par_blocks_1_restart $end
$var reg 1 "E WILL_FIRE_RL_par_blocks_1_restart_1 $end
$var reg 1 "F WILL_FIRE_RL_par_blocks_1_start_reg__dreg_update $end
$var reg 1 "G WILL_FIRE_RL_par_blocks_1_start_reg__dreg_update_1 $end
$var reg 1 "H WILL_FIRE_RL_par_blocks_1_state_every $end
$var reg 1 "I WILL_FIRE_RL_par_blocks_1_state_every_1 $end
$var reg 1 "J WILL_FIRE_RL_par_blocks_1_state_fired__dreg_update $end
$var reg 1 "K WILL_FIRE_RL_par_blocks_1_state_fired__dreg_update_1 $end
$var reg 1 "L WILL_FIRE_RL_par_blocks_1_state_handle_abort $end
$var reg 1 "M WILL_FIRE_RL_par_blocks_1_state_handle_abort_1 $end
$var reg 1 "N WILL_FIRE_RL_par_blocks_restart $end
$var reg 1 "O WILL_FIRE_RL_par_blocks_restart_1 $end
$var reg 1 "P WILL_FIRE_RL_par_blocks_start_reg__dreg_update $end
$var reg 1 "Q WILL_FIRE_RL_par_blocks_start_reg__dreg_update_1 $end
$var reg 1 "R WILL_FIRE_RL_par_blocks_state_every $end
$var reg 1 "S WILL_FIRE_RL_par_blocks_state_every_1 $end
$var reg 1 "T WILL_FIRE_RL_par_blocks_state_fired__dreg_update $end
$var reg 1 "U WILL_FIRE_RL_par_blocks_state_fired__dreg_update_1 $end
$var reg 1 "V WILL_FIRE_RL_par_blocks_state_handle_abort $end
$var reg 1 "W WILL_FIRE_RL_par_blocks_state_handle_abort_1 $end
$var reg 1 "X WILL_FIRE_RL_restart $end
$var reg 1 "Y WILL_FIRE_RL_start_reg__dreg_update $end
$var reg 1 "Z WILL_FIRE_RL_state_every $end
$var reg 1 "[ WILL_FIRE_RL_state_fired__dreg_update $end
$var reg 1 "\ WILL_FIRE_RL_state_handle_abort $end
$var reg 1 "] WILL_FIRE___me_check_25 $end
$var reg 1 "^ WILL_FIRE___me_check_26 $end
$var reg 1 "_ WILL_FIRE___me_check_27 $end
$var reg 1 "` WILL_FIRE___me_check_28 $end
$var reg 1 "a WILL_FIRE___me_check_29 $end
$var reg 1 "b WILL_FIRE___me_check_30 $end
$var reg 1 "c WILL_FIRE___me_check_31 $end
$var reg 1 "d WILL_FIRE___me_check_32 $end
$var reg 1 "e WILL_FIRE___me_check_33 $end
$var reg 1 "f WILL_FIRE___me_check_34 $end
$var reg 1 "g WILL_FIRE___me_check_35 $end
$var reg 1 "h WILL_FIRE___me_check_37 $end
$var reg 1 "i WILL_FIRE___me_check_38 $end
$var reg 1 "j WILL_FIRE___me_check_41 $end
$var reg 1 "k WILL_FIRE___me_check_42 $end
$var reg 1 "l WILL_FIRE___me_check_43 $end
$var reg 1 "m WILL_FIRE___me_check_44 $end
$var reg 1 "n WILL_FIRE___me_check_45 $end
$var reg 1 "o WILL_FIRE___me_check_47 $end
$var reg 1 "p WILL_FIRE___me_check_48 $end
$var reg 32 "q b__h22924 $end
$var reg 32 "r rg_j1_09_PLUS_1___d234 $end
$var reg 32 "s rg_j2_78_PLUS_1___d202 $end
$var reg 8 "t v__h441521 $end
$var reg 32 "u x__h442399 $end
$var reg 1 #P abort $end
$var reg 1 #Q par_blocks_1_abort $end
$var reg 1 #R par_blocks_1_abort_1 $end
$var reg 1 #S par_blocks_1_start_reg $end
$var reg 1 #T par_blocks_1_start_reg_1 $end
$var reg 1 #U par_blocks_1_start_reg_2 $end
$var reg 1 #V par_blocks_1_start_reg_3 $end
$var reg 1 #W par_blocks_1_start_wire $end
$var reg 1 #X par_blocks_1_start_wire_1 $end
$var reg 1 #Y par_blocks_1_state_can_overlap $end
$var reg 1 #Z par_blocks_1_state_can_overlap_1 $end
$var reg 1 #[ par_blocks_1_state_fired $end
$var reg 1 #\ par_blocks_1_state_fired_1 $end
$var reg 1 #] par_blocks_1_state_fired_2 $end
$var reg 1 #^ par_blocks_1_state_fired_3 $end
$var reg 3 #_ par_blocks_1_state_mkFSMstate $end
$var reg 3 #` par_blocks_1_state_mkFSMstate_1 $end
$var reg 1 #a par_blocks_1_state_overlap_pw $end
$var reg 1 #b par_blocks_1_state_overlap_pw_1 $end
$var reg 1 #c par_blocks_1_state_set_pw $end
$var reg 1 #d par_blocks_1_state_set_pw_1 $end
$var reg 1 #e par_blocks_abort $end
$var reg 1 #f par_blocks_abort_1 $end
$var reg 1 #g par_blocks_start_reg $end
$var reg 1 #h par_blocks_start_reg_1 $end
$var reg 1 #i par_blocks_start_reg_2 $end
$var reg 1 #j par_blocks_start_reg_3 $end
$var reg 1 #k par_blocks_start_wire $end
$var reg 1 #l par_blocks_start_wire_1 $end
$var reg 1 #m par_blocks_state_can_overlap $end
$var reg 1 #n par_blocks_state_can_overlap_1 $end
$var reg 1 #o par_blocks_state_fired $end
$var reg 1 #p par_blocks_state_fired_1 $end
$var reg 1 #q par_blocks_state_fired_2 $end
$var reg 1 #r par_blocks_state_fired_3 $end
$var reg 3 #s par_blocks_state_mkFSMstate $end
$var reg 3 #t par_blocks_state_mkFSMstate_1 $end
$var reg 1 #u par_blocks_state_overlap_pw $end
$var reg 1 #v par_blocks_state_overlap_pw_1 $end
$var reg 1 #w par_blocks_state_set_pw $end
$var reg 1 #x par_blocks_state_set_pw_1 $end
$var reg 1 #y par_running $end
$var reg 1 #z par_running_1 $end
$var reg 32 #{ rg_j1 $end
$var reg 32 #| rg_j2 $end
$var reg 1 #} running $end
$var reg 1 #~ start_reg $end
$var reg 1 $! start_reg_1 $end
$var reg 1 $" start_reg_2 $end
$var reg 1 $# start_wire $end
$var reg 1 $$ state_can_overlap $end
$var reg 1 $% state_fired $end
$var reg 1 $& state_fired_1 $end
$var reg 5 $' state_mkFSMstate $end
$var reg 1 $( state_overlap_pw $end
$var reg 1 $) state_set_pw $end
$scope module hw_ModelEnigma $end
$var reg 1 ! CLK $end
$var reg 1 $* CAN_FIRE_RL_rl_process_char $end
$var reg 1 $+ CAN_FIRE_request_put $end
$var reg 1 $, CAN_FIRE_reset $end
$var reg 1 $- CAN_FIRE_response_get $end
$var reg 234 $. IF_rg_m_BIT_208_66_THEN_rg_m_BITS_450_TO_442_6_ETC___d371 $end
$var reg 234 $/ IF_rg_m_BIT_442_60_THEN_rg_m_BITS_684_TO_676_6_ETC___d365 $end
$var reg 702 $0 IF_rg_m_BIT_442_60_THEN_rg_m_BITS_684_TO_676_6_ETC___d374 $end
$var reg 1 $1 RST_N $end
$var reg 1 $2 WILL_FIRE_RL_rl_process_char $end
$var reg 1 $3 WILL_FIRE_request_put $end
$var reg 1 $4 WILL_FIRE_reset $end
$var reg 1 $5 WILL_FIRE_response_get $end
$var reg 1118 $6 rg_m_BITS_1117_TO_910_59_CONCAT_IF_rg_m_BIT_44_ETC___d376 $end
$var reg 208 $7 rg_m_BITS_1117_TO_910___d359 $end
$var reg 208 $8 rg_m_BITS_207_TO_0___d375 $end
$var reg 225 $9 rg_m_BITS_441_TO_217___d373 $end
$var reg 234 $: rg_m_BITS_450_TO_442_67_CONCAT_rg_m_BITS_675_T_ETC___d369 $end
$var reg 234 $; rg_m_BITS_675_TO_442___d370 $end
$var reg 225 $< rg_m_BITS_675_TO_451___d368 $end
$var reg 234 $= rg_m_BITS_684_TO_676_61_CONCAT_rg_m_BITS_909_T_ETC___d363 $end
$var reg 234 $> rg_m_BITS_909_TO_676___d364 $end
$var reg 225 $? rg_m_BITS_909_TO_685___d362 $end
$var reg 1118 $@ rg_m___d4 $end
$var reg 1 $A EN_request_put $end
$var reg 1 $B EN_reset $end
$var reg 1 $C EN_response_get $end
$var reg 1 $D RDY_request_put $end
$var reg 1 $E RDY_reset $end
$var reg 1 $F RDY_response_get $end
$var reg 8 $G request_put $end
$var reg 8 $H response_get $end
$scope module fifo_in $end
$var reg 1 ! CLK $end
$var reg 1 $O RST $end
$var reg 1 $P FULL_N $end
$var reg 1 $Q EMPTY_N $end
$var reg 1 $R ENQ $end
$var reg 8 $S D_IN $end
$var reg 1 $T DEQ $end
$var reg 1 $U CLR $end
$var reg 8 $V D_OUT $end
$var reg 8 $V arr_0 $end
$var reg 8 $W arr_1 $end
$upscope $end
$scope module fifo_out $end
$var reg 1 ! CLK $end
$var reg 1 $X RST $end
$var reg 1 $Y FULL_N $end
$var reg 1 $Z EMPTY_N $end
$var reg 1 $[ ENQ $end
$var reg 8 $\ D_IN $end
$var reg 1 $] DEQ $end
$var reg 1 $^ CLR $end
$var reg 8 $_ D_OUT $end
$var reg 8 $_ arr_0 $end
$var reg 8 $` arr_1 $end
$upscope $end
$var reg 1118 $a rg_m $end
$var reg 1 $b rotor_clicks_0 $end
$var reg 1 $c rotor_clicks_1 $end
$var reg 1 $d rotor_clicks_2 $end
$upscope $end
$upscope $end
$upscope $end
$enddefinitions $end
1!
0"
0#
0$
0%
1&
1'
0(
0)
0*
0+
0,
0-
0.
0/
00
01
02
03
04
05
06
07
08
09
0:
1;
0<
0=
0>
0?
0@
0A
0B
0C
0D
0E
0F
0G
0H
0I
0J
0K
0L
1M
1N
1O
1P
1Q
1R
0S
0T
0U
0V
1W
1X
1Y
1Z
1[
1\
0]
0^
0_
1`
1a
1b
0c
1d
1e
1f
1g
1h
1i
1j
1k
1l
1m
1n
1o
1p
1q
1r
1s
1t
1u
1v
1w
0x
0y
0z
0{
0|
1}
1~
0"!
0""
0"#
0"$
0"%
0"&
0"'
0"(
0")
0"*
0"+
0",
0"-
0".
0"/
0"0
0"1
0"2
0"3
1"4
0"5
0"6
0"7
0"8
0"9
0":
0";
0"<
0"=
0">
0"?
0"@
0"A
0"B
0"C
0"D
0"E
1"F
1"G
1"H
1"I
1"J
1"K
0"L
0"M
0"N
0"O
1"P
1"Q
1"R
1"S
1"T
1"U
0"V
0"W
0"X
1"Y
1"Z
1"[
0"\
1"]
1"^
1"_
1"`
1"a
1"b
1"c
1"d
1"e
1"f
1"g
1"h
1"i
1"j
1"k
1"l
1"m
1"n
1"o
1"p
b10101010101010101010101010101010 "q
b10101010101010101010101010101011 "r
b10101010101010101010101010101011 "s
b0 "t
b10101010101010101010101010101010 "u
x#P
x#Q
x#R
0#S
x#T
0#U
x#V
x#W
x#X
1#Y
1#Z
0#[
1#\
0#]
x#^
b0 #_
b0 #`
0#a
0#b
1#c
0#d
x#e
x#f
0#g
x#h
0#i
x#j
x#k
x#l
1#m
1#n
0#o
1#p
0#q
x#r
b0 #s
b0 #t
0#u
0#v
1#w
0#x
1#y
x#z
b10101010101010101010101010101011 #{
b10101010101010101010101010101011 #|
0#}
0#~
0$!
x$"
x$#
1$$
0$%
1$&
b0 $'
0$(
1$)
0$*
1$+
1$,
0$-
b101010101010101010101010101010101010101010101010101010101010101010101010101010101010101010101010101010101010101010101010101010101010101010101010101010101010101010101010101010101010101010101010101010101010101010101010101010101010101010 $.
b101010101010101010101010101010101010101010101010101010101010101010101010101010101010101010101010101010101010101010101010101010101010101010101010101010101010101010101010101010101010101010101010101010101010101010101010101010101010101010 $/
b101010101010101010101010101010101010101010101010101010101010101010101010101010101010101010101010101010101010101010101010101010101010101010101010101010101010101010101010101010101010101010101010101010101010101010101010101010101010101010101010101010101010101010101010101010101010101010101010101010101010101010101010101010101010101010101010101010101010101010101010101010101010101010101010101010101010101010101010101010101010101010101010101010101010101010101010101010101010101010101010101010101010101010101010101010101010101010101010101010101010101010101010101010101010101010101010101010101010101010101010101010101010101010101010101010101010101010101010101010101010101010101010101010101010101010101010101010 $0
0$1
0$2
0$3
0$4
0$5
b10101010101010101010101010101010101010101010101010101010101010101010101010101010101010101010101010101010101010101010101010101010101010101010101010101010101010101010101010101010101010101010101010101010101010101010101010101010101010101010101010101010101010101010101010101010101010101010101010101010101010101010101010101010101010101010101010101010101010101010101010101010101010101010101010101010101010101010101010101010101010101010101010101010101010101010101010101010101010101010101010101010101010101010101010101010101010101010101010101010101010101010101010101010101010101010101010101010101010101010101010101010101010101010101010101010101010101010101010101010101010101010101010101010101010101010101010101010101010101010101010101010101010101010101010101010101010101010101010101010101010101010101010101010101010101010101010101010101010101010101010101010101010101010101010101010101010101010101010101010101010101010101010101010101010101010101010101010101010101010101010101010101010101010101010101010101010101010101010101010101010101010101010101010101010101010101010101010101010101010101010101010101010101010101010101010101010 $6
b1010101010101010101010101010101010101010101010101010101010101010101010101010101010101010101010101010101010101010101010101010101010101010101010101010101010101010101010101010101010101010101010101010101010101010 $7
b1010101010101010101010101010101010101010101010101010101010101010101010101010101010101010101010101010101010101010101010101010101010101010101010101010101010101010101010101010101010101010101010101010101010101010 $8
b10101010101010101010101010101010101010101010101010101010101010101010101010101010101010101010101010101010101010101010101010101010101010101010101010101010101010101010101010101010101010101010101010101010101010101010101010101010 $9
b101010101010101010101010101010101010101010101010101010101010101010101010101010101010101010101010101010101010101010101010101010101010101010101010101010101010101010101010101010101010101010101010101010101010101010101010101010101010101010 $:
b101010101010101010101010101010101010101010101010101010101010101010101010101010101010101010101010101010101010101010101010101010101010101010101010101010101010101010101010101010101010101010101010101010101010101010101010101010101010101010 $;
b10101010101010101010101010101010101010101010101010101010101010101010101010101010101010101010101010101010101010101010101010101010101010101010101010101010101010101010101010101010101010101010101010101010101010101010101010101010 $<
b101010101010101010101010101010101010101010101010101010101010101010101010101010101010101010101010101010101010101010101010101010101010101010101010101010101010101010101010101010101010101010101010101010101010101010101010101010101010101010 $=
b101010101010101010101010101010101010101010101010101010101010101010101010101010101010101010101010101010101010101010101010101010101010101010101010101010101010101010101010101010101010101010101010101010101010101010101010101010101010101010 $>
b10101010101010101010101010101010101010101010101010101010101010101010101010101010101010101010101010101010101010101010101010101010101010101010101010101010101010101010101010101010101010101010101010101010101010101010101010101010 $?
b10101010101010101010101010101010101010101010101010101010101010101010101010101010101010101010101010101010101010101010101010101010101010101010101010101010101010101010101010101010101010101010101010101010101010101010101010101010101010101010101010101010101010101010101010101010101010101010101010101010101010101010101010101010101010101010101010101010101010101010101010101010101010101010101010101010101010101010101010101010101010101010101010101010101010101010101010101010101010101010101010101010101010101010101010101010101010101010101010101010101010101010101010101010101010101010101010101010101010101010101010101010101010101010101010101010101010101010101010101010101010101010101010101010101010101010101010101010101010101010101010101010101010101010101010101010101010101010101010101010101010101010101010101010101010101010101010101010101010101010101010101010101010101010101010101010101010101010101010101010101010101010101010101010101010101010101010101010101010101010101010101010101010101010101010101010101010101010101010101010101010101010101010101010101010101010101010101010101010101010101010101010101010101010101010101010101010 $@
0$A
0$B
0$C
1$D
1$E
0$F
b0 $G
b0 $H
0$O
1$P
0$Q
0$R
b10101010 $S
0$T
1$U
bx $V
bx $W
0$X
1$Y
0$Z
0$[
b10101010 $\
0$]
1$^
bx $_
bx $`
b10101010101010101010101010101010101010101010101010101010101010101010101010101010101010101010101010101010101010101010101010101010101010101010101010101010101010101010101010101010101010101010101010101010101010101010101010101010101010101010101010101010101010101010101010101010101010101010101010101010101010101010101010101010101010101010101010101010101010101010101010101010101010101010101010101010101010101010101010101010101010101010101010101010101010101010101010101010101010101010101010101010101010101010101010101010101010101010101010101010101010101010101010101010101010101010101010101010101010101010101010101010101010101010101010101010101010101010101010101010101010101010101010101010101010101010101010101010101010101010101010101010101010101010101010101010101010101010101010101010101010101010101010101010101010101010101010101010101010101010101010101010101010101010101010101010101010101010101010101010101010101010101010101010101010101010101010101010101010101010101010101010101010101010101010101010101010101010101010101010101010101010101010101010101010101010101010101010101010101010101010101010101010101010101010101010101010 $a
0$b
0$c
0$d
0&
0'
0;
1@
0}
0~
0"4
1"9
b10101010101010101010101010101011 "q
b10101010101010101010101010101011 "u
x#\
0#c
x#p
0#w
x#y
x$&
0$)
0$U
0$^
#5
0!
1x
1$1
1$O
1$X
#10
1+
0@
1A
1"$
0"9
1":
1$"
1$#
1$&
1$)
1!
1#}
1#~
#15
0!
#20
0+
1,
0A
0"$
1"%
0":
x$"
x$#
1!
0#~
1$!
1$%
b1 $'
#25
0!
#30
0,
1-
0"%
1"&
1!
0$!
b10 $'
#35
0!
#40
0-
1.
0"&
1"'
1!
b11 $'
#45
0!
#50
0.
1/
0"'
1"(
1!
b100 $'
#55
0!
#60
0/
10
0"(
1")
1!
b101 $'
#65
0!
#70
00
11
0")
1"*
1!
b110 $'
#75
0!
#80
01
12
0"*
1"+
1$4
1$B
1!
b111 $'
#85
0!
#90
02
13
0"+
1",
0$4
0$B
1!
b1000 $'
b1011010010101010101000101001101010101000101100101010110010100110101001001011000010100000100110001001110010101110100111101001011010010100100100101000001010000110100011001000101010001000100011101000010010010000101010000100010100101101000100100100101100100101001000100111000101011000100111100101010100101011100100101000100000100100110100100101110100011100100011000101100000101000100100001110100110000100001000100100000101001100101000000100010000101011100100010000100000100100001010100001100101100000100011100100100100100011000101001100100110100100101000101101000101001000101010100100100000101000000101000100101011000100111000100101100101010000100010100100110000100111100101100100101011100100000100100001100100100110100101000101001000100001000100011100100111000100101100101010000100110100101001100101100000100100000100010100100011000101100100101000000101010100100110000100010000100111110101101000101000100101011000100111001001010010100100100110101001011010011000100011101001000010110000100111101000100010100010101101001010111010101010101011001011001010000110101001101010100010000010100001001010000010010010100010101000110 $a
#95
0!
#100
1"
1#
03
1=
1y
1z
0",
1"6
1#T
1#W
1#\
1#c
1#h
1#k
1#p
1#w
1#y
1!
b1001 $'
#105
0!
#110
0"
0#
14
1;
0=
0y
0z
1"-
1"4
0"6
b0 "q
b0 "u
x#T
x#W
x#\
0#c
x#h
x#k
1$3
1$A
b1000101 $G
1$R
b1000101 $S
1!
1#S
1#[
b1 #_
1#g
1#o
b1 #s
b0 #{
b0 #|
b1010 $'
#115
0!
